{
  "flignore": {
    "prefix": ["ut-fli"],
      "body": [
        "@featurelint-ignore"
    ],
    "description": "Insert `Feature Lint Ignore tag` for telling FeatureLint to ignore this file"
  },
  "Scenario": {
    "prefix": ["Scenario", "ut-scenario", "ut-sn"],
      "body": [
        "Scenario: ${1:Start typing the name of your scenario}",
        "  Given ${2:Start typing your given}",
        "  When ${3:Start typing your when}",
        "  Then ${0:Start typing your then}",
        ""
    ],
    "description": "Insert `Scenario`"
  },
  "Scenario Outline": {
    "prefix": ["scenario-outline", "ut-outline", "ut-so", "ut-ol"],
      "body": [
        "Scenario Outline: ${1:Start typing the name of your scenario outline}",
        "  Given ${2:Start typing your `Given`}",
        "  When ${3:Start typing your `When`}",
        "  Then ${4:Start typing your `Then`}",
        "",
        "  Examples: ${5:Name your table}",
        "  | $6 |",
        "  | $7 |",
        "  | $0 |",
        ""
    ],
    "description": "Insert `Scenario Outline`"
  },
  "Scenario Outline Example Table": {
    "prefix": ["example-table", "ut-example", "ut-ex"],
      "body": [
        "Examples: ${1:Name your table}",
        "| $2 |",
        "| $3 |",
        "| $0 |",
        ""
    ],
    "description": "Insert `Scenario Outline` example table"
  },
  "Background": {
    "prefix": ["background", "ut-background", "ut-bg"],
      "body": [
        "Background: ",
        "  Given ${0:Start typing your given}",
        ""
    ],
    "description": "Insert `Background`"
  },
  "Feature": {
    "prefix": ["feature", "ut-feature-scenario", "ut-ft-sn"],
      "body": [
        "Feature: ${1:Start typing the name of your feature}",
        "",
        "As $2",
        "I want $3",
        "So that $4",
        "",
        "Scenario: ${5:Start typing the name of your scenario}",
        "  Given ${6:Start typing your given}",
        "  When ${7:Start typing your when}",
        "  Then ${0:Start typing your then}",
        ""
    ],
    "description": "Insert `Feature`"
  },
  "Feature Outline": {
    "prefix": ["feature-outline", "ut-feature-outline", "ut-ft-ol"],
      "body": [
        "Feature: ${1:Start typing the name of your feature}",
        "",
        "As $2",
        "I want $3",
        "So that $4",
        "",
        "  Scenario Outline: ${5:Start typing the name of your scenario outline}",
        "    Given ${6:Start typing your given}",
        "    When ${7:Start typing your when}",
        "    Then ${8:Start typing your then}",
        "    Examples: ${9:Name your table}",
        "    | $10 |",
        "    | $11 |",
        "    | $0 |",
        ""
    ],
    "description": "Insert `Feature` with a `Scenario Outline`"
  },
  "Feature with Background": {
    "prefix": ["feature-with-background", "ut-feature-background-scenario", "ut-ft-bg-sn"],
      "body": [
        "Feature: ${1:Start typing the name of your feature}",
        "",
        "As $2",
        "I want $3",
        "So that $4",
        "",
        "Background: ",
        "  Given ${5:Start typing your given}",
        "",
        "  Scenario: ${6:Start typing the name of your scenario}",
        "    Given ${7:Start typing your given}",
        "    When ${8:Start typing your when}",
        "    Then ${0:Start typing your then}",
        ""
    ],
    "description": "Insert `Feature` with a `Background`"
  },
  "Feature with Background and Scenario Outline": {
    "prefix": ["feature-with-background-outline", "ut-feature-background-outline", "ut-ft-bg-so", "ut-ft-bg-ol"],
      "body": [
        "Feature: ${1:Start typing the name of your feature}",
        "",
        "As $2",
        "I want $3",
        "So that $4",
        "",
        "Background: ",
        "  Given ${5:Start typing your given}",
        "",
        "  Scenario Outline: ${6:Start typing the name of your scenario}",
        "    Given ${7:Start typing your given}",
        "    When ${8:Start typing your when}",
        "    Then ${9:Start typing your then}",
        "    Examples: ${10:Name your table}",
        "    | $11 |",
        "    | $12 |",
        "    | $0 |",
        ""
    ],
    "description": "Insert `Feature` with a `Background` and a `Scenario Outline`"
  }
}